Yiman’s Data Analytics Journey - TAKEHOME04 Putting Visual Analytics into Practical Use
…
    Africa (Million Dollars) 
    2020-01-01 
    528.6 

in this part, we applied R to form pivet table,as we can see there will be 3 columns, represent different value to each continent。

2 Data Analysis and Visualizations

2.1 Horizon Plot: Average Import Prices from Different Countries (Jan 2020 to Dec 2022)

imports_pivot

# A tibble: 4,284 × 3
   `Data Series`                                timestamp      value
   <chr>                                        <date>         <dbl>
 1 Total Merchandise Imports (Thousand Dollars) 2020-01-01 41180224 
 2 America (Million Dollars)                    2020-01-01     5844.
 3 Asia (Million Dollars)                       2020-01-01    27128.
 4 Europe (Million Dollars)                     2020-01-01     6860.
 5 Oceania (Million Dollars)                    2020-01-01      820.
 6 Africa (Million Dollars)                     2020-01-01      529.
 7 European Union (Million Dollars)             2020-01-01     4371.
 8 Belgium (Thousand Dollars)                   2020-01-01   124193 
 9 Denmark (Thousand Dollars)                   2020-01-01    84860 
10 France (Thousand Dollars)                    2020-01-01  1491370 
# … with 4,274 more rows
…
